VHDL/meudisplay/simulation/qsim/meudisplay.msim.vcd
$comment
	File created using the following command:
		vcd file meudisplay.msim.vcd -direction
$end
$date
	Fri Nov 22 20:08:50 2019
$end
$version
	ModelSim Version 10.1d
$end
$timescale
	1ps
$end
$scope module meudisplay_vlg_vec_tst $end
$var reg 1 ! A $end
$var reg 1 " B $end
$var reg 1 # C $end
$var reg 1 $ D $end
$var wire 1 % Sa $end
$var wire 1 & Sb $end
$var wire 1 ' Sc $end
$var wire 1 ( Sd $end
$var wire 1 ) Se $end
$var wire 1 * Sf $end
$var wire 1 + Sg $end
$var wire 1 , sampler $end
$scope module i1 $end
$var wire 1 - gnd $end
$var wire 1 . vcc $end
$var wire 1 / unknown $end
$var tri1 1 0 devclrn $end
$var tri1 1 1 devpor $end
$var tri1 1 2 devoe $end
$var wire 1 3 B~combout $end
$var wire 1 4 A~combout $end
$var wire 1 5 D~combout $end
$var wire 1 6 C~combout $end
$var wire 1 7 Sa~0_combout $end
$var wire 1 8 Sb~0_combout $end
$var wire 1 9 Sc~0_combout $end
$var wire 1 : Sd~0_combout $end
$var wire 1 ; Se~0_combout $end
$var wire 1 < Sf~0_combout $end
$var wire 1 = Sg~0_combout $end
$upscope $end
$upscope $end
$enddefinitions $end
#0
$dumpvars
0!
0"
0#
0$
0%
0&
0'
0(
0)
0*
1+
x,
0-
1.
x/
10
11
12
03
04
05
06
17
18
19
1:
1;
1<
0=
$end
#25000
1!
14
0,
1=
0+
#50000
1"
0!
13
04
1,
0;
0:
07
1)
1(
1%
#75000
1!
14
0,
1:
17
0(
0%
#100000
1#
0"
0!
16
03
04
1,
0<
1;
09
1*
0)
1'
#125000
1!
14
0,
1<
0*
#150000
1"
0!
13
04
1,
19
08
0'
1&
#175000
1!
14
0,
#200000
1$
0#
0"
0!
15
06
03
04
1,
0=
0<
0;
0:
18
07
1+
1*
1)
1(
0&
1%
#225000
1!
14
0,
1=
1<
1:
17
0+
0*
0(
0%
#250000
1"
0!
13
04
1,
08
1&
#275000
1!
14
0,
#300000
1#
0"
0!
16
03
04
1,
0<
18
1*
0&
#325000
1!
14
0,
1<
0*
#350000
1"
0!
13
04
1,
0=
0<
0:
1+
1*
1(
#375000
1!
14
0,
1=
1<
1:
0+
0*
0(
#400000
0$
0#
0"
0!
05
06
03
04
1,
0=
1;
1+
0)
#425000
1!
14
0,
1=
0+
#450000
1"
0!
13
04
1,
0;
0:
07
1)
1(
1%
#475000
1!
14
0,
1:
17
0(
0%
#500000
1#
0"
0!
16
03
04
1,
0<
1;
09
1*
0)
1'
#525000
1!
14
0,
1<
0*
#550000
1"
0!
13
04
1,
19
08
0'
1&
#575000
1!
14
0,
#600000
1$
0#
0"
0!
15
06
03
04
1,
0=
0<
0;
0:
18
07
1+
1*
1)
1(
0&
1%
#625000
1!
14
0,
1=
1<
1:
17
0+
0*
0(
0%
#650000
1"
0!
13
04
1,
08
1&
#675000
1!
14
0,
#700000
1#
0"
0!
16
03
04
1,
0<
18
1*
0&
#725000
1!
14
0,
1<
0*
#750000
1"
0!
13
04
1,
0=
0<
0:
1+
1*
1(
#775000
1!
14
0,
1=
1<
1:
0+
0*
0(
#800000
0$
0#
0"
0!
05
06
03
04
1,
0=
1;
1+
0)
#825000
1!
14
0,
1=
0+
#850000
1"
0!
13
04
1,
0;
0:
07
1)
1(
1%
#875000
1!
14
0,
1:
17
0(
0%
#900000
1#
0"
0!
16
03
04
1,
0<
1;
09
1*
0)
1'
#925000
1!
14
0,
1<
0*
#950000
1"
0!
13
04
1,
19
08
0'
1&
#975000
1!
14
0,
