VHDL/meio somador 1 bit/simulation/qsim/meio_somador_1bit.msim.vcd
$comment
	File created using the following command:
		vcd file meio_somador_1bit.msim.vcd -direction
$end
$date
	Fri Nov 22 20:42:56 2019
$end
$version
	ModelSim Version 10.1d
$end
$timescale
	1ps
$end
$scope module meio_somador_1bit_vlg_vec_tst $end
$var reg 1 ! A $end
$var reg 1 " B $end
$var wire 1 # COUT $end
$var wire 1 $ S $end
$var wire 1 % sampler $end
$scope module i1 $end
$var wire 1 & gnd $end
$var wire 1 ' vcc $end
$var wire 1 ( unknown $end
$var tri1 1 ) devclrn $end
$var tri1 1 * devpor $end
$var tri1 1 + devoe $end
$var wire 1 , A~combout $end
$var wire 1 - B~combout $end
$var wire 1 . S~0_combout $end
$var wire 1 / COUT~0_combout $end
$upscope $end
$upscope $end
$enddefinitions $end
#0
$dumpvars
0!
0"
0#
0$
x%
0&
1'
x(
1)
1*
1+
0,
0-
0.
0/
$end
#50000
1!
1,
0%
1.
1$
#100000
1"
0!
1-
0,
1%
#150000
1!
1,
0%
1/
0.
1#
0$
#200000
0"
0!
0-
0,
1%
0/
0#
#250000
1!
1,
0%
1.
1$
#300000
1"
0!
1-
0,
1%
#350000
1!
1,
0%
1/
0.
1#
0$
#400000
0"
0!
0-
0,
1%
0/
0#
#450000
1!
1,
0%
1.
1$
#500000
1"
0!
1-
0,
1%
#550000
1!
1,
0%
1/
0.
1#
0$
#600000
0"
0!
0-
0,
1%
0/
0#
#650000
1!
1,
0%
1.
1$
#700000
1"
0!
1-
0,
1%
#750000
1!
1,
0%
1/
0.
1#
0$
#800000
0"
0!
0-
0,
1%
0/
0#
#850000
1!
1,
0%
1.
1$
#900000
1"
0!
1-
0,
1%
#950000
1!
1,
0%
1/
0.
1#
0$
